%YAML 1.1
%TAG !u! tag:unity3d.com,2011:
--- !u!74 &7400000
AnimationClip:
  m_ObjectHideFlags: 0
  m_PrefabParentObject: {fileID: 0}
  m_PrefabInternal: {fileID: 0}
  m_Name: PopupOpen
  serializedVersion: 6
  m_Legacy: 0
  m_Compressed: 0
  m_UseHighQualityCurve: 1
  m_RotationCurves: []
  m_CompressedRotationCurves: []
  m_EulerCurves: []
  m_PositionCurves: []
  m_ScaleCurves:
  - curve:
      serializedVersion: 2
      m_Curve:
      - serializedVersion: 2
        time: 0
        value: {x: 0.01, y: 0.01, z: 0.01}
        inSlope: {x: 5.070181, y: 4.5166645, z: 6.6}
        outSlope: {x: 5.070181, y: 4.5166645, z: 6.6}
        tangentMode: 0
      - serializedVersion: 2
        time: 0.15
        value: {x: 0.7705272, y: 0.6874997, z: 1}
        inSlope: {x: 2.4918294, y: 2.8062847, z: 3.3}
        outSlope: {x: 2.4918294, y: 2.8062847, z: 3.3}
        tangentMode: 0
      - serializedVersion: 2
        time: 0.25
        value: {x: 0.761875, y: 0.7970902, z: 1}
        inSlope: {x: 0.18548915, y: 0.56541145, z: 0}
        outSlope: {x: 0.18548915, y: 0.56541145, z: 0}
        tangentMode: 0
      - serializedVersion: 2
        time: 0.33333334
        value: {x: 0.8, y: 0.8, z: 1}
        inSlope: {x: 0.27875015, y: 0.017459033, z: 0}
        outSlope: {x: 0.27875015, y: 0.017459033, z: 0}
        tangentMode: 0
      - serializedVersion: 2
        time: 0.43333334
        value: {x: 0.81, y: 0.8, z: 1}
        inSlope: {x: 0.012499988, y: 0, z: 0}
        outSlope: {x: 0.012499988, y: 0, z: 0}
        tangentMode: 0
      - serializedVersion: 2
        time: 0.56666666
        value: {x: 0.8, y: 0.8, z: 1}
        inSlope: {x: -0.074999936, y: 0, z: 0}
        outSlope: {x: -0.074999936, y: 0, z: 0}
        tangentMode: 0
      m_PreInfinity: 2
      m_PostInfinity: 2
      m_RotationOrder: 4
    path: 
  m_FloatCurves:
  - curve:
      serializedVersion: 2
      m_Curve:
      - serializedVersion: 2
        time: 0
        value: 0
        inSlope: Infinity
        outSlope: Infinity
        tangentMode: 103
      - serializedVersion: 2
        time: 0.56666666
        value: 1
        inSlope: Infinity
        outSlope: Infinity
        tangentMode: 103
      m_PreInfinity: 2
      m_PostInfinity: 2
      m_RotationOrder: 4
    attribute: m_IsActive
    path: Panel_block
    classID: 1
    script: {fileID: 0}
  m_PPtrCurves: []
  m_SampleRate: 60
  m_WrapMode: 0
  m_Bounds:
    m_Center: {x: 0, y: 0, z: 0}
    m_Extent: {x: 0, y: 0, z: 0}
  m_ClipBindingConstant:
    genericBindings:
    - serializedVersion: 2
      path: 0
      attribute: 3
      script: {fileID: 0}
      typeID: 4
      customType: 0
      isPPtrCurve: 0
    - serializedVersion: 2
      path: 3577809891
      attribute: 2086281974
      script: {fileID: 0}
      typeID: 1
      customType: 0
      isPPtrCurve: 0
    pptrCurveMapping: []
  m_AnimationClipSettings:
    serializedVersion: 2
    m_AdditiveReferencePoseClip: {fileID: 0}
    m_AdditiveReferencePoseTime: 0
    m_StartTime: 0
    m_StopTime: 0.56666666
    m_OrientationOffsetY: 0
    m_Level: 0
    m_CycleOffset: 0
    m_HasAdditiveReferencePose: 0
    m_LoopTime: 0
    m_LoopBlend: 0
    m_LoopBlendOrientation: 0
    m_LoopBlendPositionY: 0
    m_LoopBlendPositionXZ: 0
    m_KeepOriginalOrientation: 0
    m_KeepOriginalPositionY: 1
    m_KeepOriginalPositionXZ: 0
    m_HeightFromFeet: 0
    m_Mirror: 0
  m_EditorCurves:
  - curve:
      serializedVersion: 2
      m_Curve:
      - serializedVersion: 2
        time: 0
        value: 0.01
        inSlope: 5.070181
        outSlope: 5.070181
        tangentMode: 34
      - serializedVersion: 2
        time: 0.15
        value: 0.7705272
        inSlope: 2.4918294
        outSlope: 2.4918294
        tangentMode: 34
      - serializedVersion: 2
        time: 0.25
        value: 0.761875
        inSlope: 0.18548915
        outSlope: 0.18548915
        tangentMode: 34
      - serializedVersion: 2
        time: 0.33333334
        value: 0.8
        inSlope: 0.27875015
        outSlope: 0.27875015
        tangentMode: 34
      - serializedVersion: 2
        time: 0.43333334
        value: 0.81
        inSlope: 0.012499988
        outSlope: 0.012499988
        tangentMode: 34
      - serializedVersion: 2
        time: 0.56666666
        value: 0.8
        inSlope: -0.074999936
        outSlope: -0.074999936
        tangentMode: 34
      m_PreInfinity: 2
      m_PostInfinity: 2
      m_RotationOrder: 4
    attribute: m_LocalScale.x
    path: 
    classID: 224
    script: {fileID: 0}
  - curve:
      serializedVersion: 2
      m_Curve:
      - serializedVersion: 2
        time: 0
        value: 0.01
        inSlope: 4.5166645
        outSlope: 4.5166645
        tangentMode: 34
      - serializedVersion: 2
        time: 0.15
        value: 0.6874997
        inSlope: 2.8062847
        outSlope: 2.8062847
        tangentMode: 34
      - serializedVersion: 2
        time: 0.25
        value: 0.7970902
        inSlope: 0.56541145
        outSlope: 0.56541145
        tangentMode: 34
      - serializedVersion: 2
        time: 0.33333334
        value: 0.8
        inSlope: 0.017459033
        outSlope: 0.017459033
        tangentMode: 34
      - serializedVersion: 2
        time: 0.43333334
        value: 0.8
        inSlope: 0
        outSlope: 0
        tangentMode: 34
      - serializedVersion: 2
        time: 0.56666666
        value: 0.8
        inSlope: 0
        outSlope: 0
        tangentMode: 34
      m_PreInfinity: 2
      m_PostInfinity: 2
      m_RotationOrder: 4
    attribute: m_LocalScale.y
    path: 
    classID: 224
    script: {fileID: 0}
  - curve:
      serializedVersion: 2
      m_Curve:
      - serializedVersion: 2
        time: 0
        value: 0.01
        inSlope: 6.6
        outSlope: 6.6
        tangentMode: 34
      - serializedVersion: 2
        time: 0.15
        value: 1
        inSlope: 3.3
        outSlope: 3.3
        tangentMode: 34
      - serializedVersion: 2
        time: 0.25
        value: 1
        inSlope: 0
        outSlope: 0
        tangentMode: 34
      - serializedVersion: 2
        time: 0.33333334
        value: 1
        inSlope: 0
        outSlope: 0
        tangentMode: 34
      - serializedVersion: 2
        time: 0.43333334
        value: 1
        inSlope: 0
        outSlope: 0
        tangentMode: 34
      - serializedVersion: 2
        time: 0.56666666
        value: 1
        inSlope: 0
        outSlope: 0
        tangentMode: 34
      m_PreInfinity: 2
      m_PostInfinity: 2
      m_RotationOrder: 4
    attribute: m_LocalScale.z
    path: 
    classID: 224
    script: {fileID: 0}
  - curve:
      serializedVersion: 2
      m_Curve:
      - serializedVersion: 2
        time: 0
        value: 0
        inSlope: Infinity
        outSlope: Infinity
        tangentMode: 103
      - serializedVersion: 2
        time: 0.56666666
        value: 1
        inSlope: Infinity
        outSlope: Infinity
        tangentMode: 103
      m_PreInfinity: 2
      m_PostInfinity: 2
      m_RotationOrder: 4
    attribute: m_IsActive
    path: Panel_block
    classID: 1
    script: {fileID: 0}
  m_EulerEditorCurves: []
  m_HasGenericRootTransform: 0
  m_HasMotionFloatCurves: 0
  m_GenerateMotionCurves: 0
  m_Events: []
