%YAML 1.1
%TAG !u! tag:unity3d.com,2011:
--- !u!114 &11400000
MonoBehaviour:
  m_ObjectHideFlags: 0
  m_PrefabParentObject: {fileID: 0}
  m_PrefabInternal: {fileID: 0}
  m_GameObject: {fileID: 0}
  m_Enabled: 1
  m_EditorHideFlags: 0
  m_Script: {fileID: 11500000, guid: a6b194f808b1af6499c93410e504af42, type: 3}
  m_Name: Chef Guy Walk Cycle_Atlas
  m_EditorClassIdentifier: 
  atlasFile: {fileID: 4900000, guid: e0084d81e6a41454a9bcde4a6e76b79e, type: 3}
  materials:
  - {fileID: 2100000, guid: 1d3a487e505f42f41a05f38b5783a87d, type: 2}
