
Chef Guy Walk Cycle.png
size: 1024,1024
format: RGBA8888
filter: Linear,Linear
repeat: none
Back_Head
  rotate: false
  xy: 510, 764
  size: 151, 258
  orig: 151, 258
  offset: 0, 0
  index: -1
Back_Torso
  rotate: false
  xy: 157, 738
  size: 179, 284
  orig: 179, 284
  offset: 0, 0
  index: -1
Eyes_Closed
  rotate: true
  xy: 559, 571
  size: 16, 29
  orig: 16, 29
  offset: 0, 0
  index: -1
Eyes_Open
  rotate: false
  xy: 751, 628
  size: 16, 29
  orig: 16, 29
  offset: 0, 0
  index: -1
Front_Head
  rotate: false
  xy: 835, 819
  size: 148, 203
  orig: 148, 203
  offset: 0, 0
  index: -1
Front_L_Eye_Open
  rotate: false
  xy: 655, 589
  size: 26, 13
  orig: 26, 13
  offset: 0, 0
  index: -1
Front_L_Eyebrow
  rotate: true
  xy: 141, 676
  size: 31, 13
  orig: 31, 13
  offset: 0, 0
  index: -1
Front_L_LowerLeg
  rotate: true
  xy: 663, 735
  size: 52, 177
  orig: 52, 177
  offset: 0, 0
  index: -1
Front_L_Thigh
  rotate: true
  xy: 294, 504
  size: 76, 150
  orig: 76, 150
  offset: 0, 0
  index: -1
Front_Mouth_Closed
  rotate: true
  xy: 820, 682
  size: 51, 20
  orig: 51, 20
  offset: 0, 0
  index: -1
Front_Mouth_HalfSmile
  rotate: true
  xy: 985, 971
  size: 51, 23
  orig: 51, 23
  offset: 0, 0
  index: -1
Front_Neck
  rotate: false
  xy: 469, 566
  size: 88, 75
  orig: 88, 75
  offset: 0, 0
  index: -1
Front_Pelvis
  rotate: false
  xy: 294, 422
  size: 139, 80
  orig: 139, 80
  offset: 0, 0
  index: -1
Front_R_Eye_Closed
  rotate: false
  xy: 842, 708
  size: 44, 26
  orig: 44, 26
  offset: 0, 0
  index: -1
Front_R_Eye_Open
  rotate: true
  xy: 539, 536
  size: 28, 15
  orig: 28, 15
  offset: 0, 0
  index: -1
Front_R_Eyebrow
  rotate: false
  xy: 2, 2
  size: 35, 13
  orig: 35, 13
  offset: 0, 0
  index: -1
Front_R_LowerLeg
  rotate: true
  xy: 291, 582
  size: 59, 176
  orig: 59, 176
  offset: 0, 0
  index: -1
Front_R_Thigh
  rotate: true
  xy: 842, 736
  size: 81, 152
  orig: 81, 152
  offset: 0, 0
  index: -1
Front_Torso
  rotate: false
  xy: 338, 739
  size: 170, 283
  orig: 170, 283
  offset: 0, 0
  index: -1
Head
  rotate: false
  xy: 663, 789
  size: 170, 233
  orig: 170, 233
  offset: 0, 0
  index: -1
L_Arm
  rotate: true
  xy: 518, 650
  size: 112, 135
  orig: 112, 135
  offset: 0, 0
  index: -1
L_Arm Holding
  rotate: true
  xy: 2, 208
  size: 219, 131
  orig: 219, 131
  offset: 0, 0
  index: -1
L_Foot
  rotate: false
  xy: 655, 604
  size: 94, 53
  orig: 94, 53
  offset: 0, 0
  index: -1
L_Forearm
  rotate: false
  xy: 141, 516
  size: 148, 137
  orig: 148, 137
  offset: 0, 0
  index: -1
L_LowerLeg
  rotate: true
  xy: 655, 659
  size: 74, 163
  orig: 74, 163
  offset: 0, 0
  index: -1
L_Thigh
  rotate: false
  xy: 104, 17
  size: 85, 189
  orig: 85, 189
  offset: 0, 0
  index: -1
LabelShirt
  rotate: true
  xy: 446, 516
  size: 48, 91
  orig: 48, 91
  offset: 0, 0
  index: -1
R_Arm
  rotate: true
  xy: 141, 432
  size: 82, 151
  orig: 82, 151
  offset: 0, 0
  index: -1
R_Arm Holding
  rotate: true
  xy: 2, 429
  size: 278, 137
  orig: 278, 137
  offset: 0, 0
  index: -1
R_Foot
  rotate: false
  xy: 559, 589
  size: 94, 59
  orig: 94, 59
  offset: 0, 0
  index: -1
R_Forearm
  rotate: true
  xy: 157, 655
  size: 81, 180
  orig: 81, 180
  offset: 0, 0
  index: -1
R_LowerLeg
  rotate: false
  xy: 2, 23
  size: 100, 183
  orig: 100, 183
  offset: 0, 0
  index: -1
R_Thigh
  rotate: true
  xy: 339, 643
  size: 94, 177
  orig: 94, 177
  offset: 0, 0
  index: -1
Torso
  rotate: false
  xy: 2, 709
  size: 153, 313
  orig: 153, 313
  offset: 0, 0
  index: -1
