%YAML 1.1
%TAG !u! tag:unity3d.com,2011:
--- !u!114 &11400000
MonoBehaviour:
  m_ObjectHideFlags: 0
  m_PrefabParentObject: {fileID: 0}
  m_PrefabInternal: {fileID: 0}
  m_GameObject: {fileID: 0}
  m_Enabled: 1
  m_EditorHideFlags: 0
  m_Script: {fileID: 11500000, guid: a6b194f808b1af6499c93410e504af42, type: 3}
  m_Name: Chef Guy Walk Cycle_Atlas
  m_EditorClassIdentifier: 
  atlasFile: {fileID: 4900000, guid: 0b9e94de7b331634293e508d56fb8a30, type: 3}
  materials:
  - {fileID: 2100000, guid: 8c40675c5f785ec4ba332becac60525a, type: 2}
